<svg xmlns="http://www.w3.org/2000/svg" width="150" height="150" viewBox="0 0 149.99998 150">
 <defs>
  <clipPath>
   <path d="m 440,80.683594 c -1.84957,0 -3.31641,1.466834 -3.31641,3.316406 l 0,44 c 0,1.84957 1.46684,3.31641 3.31641,3.31641 l 44,0 c 1.84957,0 3.31641,-1.46684 3.31641,-3.31641 l 0,-44 c 0,-1.849572 -1.46684,-3.316406 -3.31641,-3.316406 l -44,0 z"/>
  </clipPath>
  <clipPath>
   <rect y="316" x="353" height="148" width="148" opacity="0.8" fill="#bf616a" color="#d4dbe9" rx="12"/>
  </clipPath>
 </defs>
</svg>
