/* XPM */
static char * top_left_inactive_xpm[] = {
"2 26 4 1",
" 	c None",
".	c #131b29",
"+	c #131b29",
"@	c #131b29",
" .",
".+",
".@",
".@",
".@",
".@",
".@",
".@",
".@",
".@",
".@",
".@",
".@",
".@",
".@",
".@",
".@",
".@",
".@",
".@",
".@",
".@",
".@",
".@",
".@",
".@"};
